{
    "code":  200,
    "data":  {
                 "logs":  [
                              "@{attack_description=检测到凭证填充攻击; attack_time=2026-01-14T07:17:42; attack_type=凭证填充; attacker_ip=203.201.178.180; blocked_time=; honeypot_id=1; id=16; is_blocked=False; is_malicious=False; notes=示例日志数据 16; payload=../../../etc/passwd; protocol=SSH; raw_log=Failed password for root from 146.111.238.204 port 36509 ssh2; request_path=/index.php; source_ip=142.184.21.161; source_port=43660; target_ip=192.168.1.100; target_port=22; threat_level=medium; user_agent=Mozilla/5.0}",
                              "@{attack_description=检测到命令注入攻击; attack_time=2026-01-14T01:17:42; attack_type=命令注入; attacker_ip=18.24.181.215; blocked_time=; honeypot_id=2; id=20; is_blocked=True; is_malicious=False; notes=示例日志数据 20; payload=\u003cscript\u003ealert(\u0027XSS\u0027)\u003c/script\u003e; protocol=HTTP; raw_log=177.14.195.58 - - [14/Jan/2026:01:17:42 +0000] \"GET /admin.php?id=1\u0027 OR \u00271\u0027=\u00271 HTTP/1.1\" 200 1234; request_path=/config.php; source_ip=23.186.151.3; source_port=53924; target_ip=192.168.1.100; target_port=80; threat_level=critical; user_agent=curl/7.68.0}",
                              "@{attack_description=检测到凭证填充攻击; attack_time=2026-01-14T01:17:42; attack_type=凭证填充; attacker_ip=7.176.106.97; blocked_time=; honeypot_id=1; id=41; is_blocked=False; is_malicious=False; notes=示例日志数据 41; payload=\u003cscript\u003ealert(\u0027XSS\u0027)\u003c/script\u003e; protocol=SSH; raw_log=Failed password for root from 58.57.61.221 port 20308 ssh2; request_path=/admin.php; source_ip=28.168.179.11; source_port=38264; target_ip=192.168.1.100; target_port=22; threat_level=critical; user_agent=Mozilla/5.0}",
                              "@{attack_description=检测到命令注入攻击; attack_time=2026-01-14T00:17:42; attack_type=命令注入; attacker_ip=232.129.220.203; blocked_time=2026-01-14T00:17:42; honeypot_id=2; id=50; is_blocked=False; is_malicious=False; notes=示例日志数据 50; payload=\u0027 OR \u00271\u0027=\u00271; protocol=HTTP; raw_log=176.152.117.46 - - [14/Jan/2026:00:17:42 +0000] \"GET /admin.php?id=1\u0027 OR \u00271\u0027=\u00271 HTTP/1.1\" 200 1234; request_path=/config.php; source_ip=111.80.170.189; source_port=22249; target_ip=192.168.1.100; target_port=80; threat_level=critical; user_agent=curl/7.68.0}",
                              "@{attack_description=检测到字典攻击攻击; attack_time=2026-01-13T22:17:42; attack_type=字典攻击; attacker_ip=185.131.222.21; blocked_time=2026-01-13T22:17:42; honeypot_id=1; id=43; is_blocked=False; is_malicious=True; notes=示例日志数据 43; payload=\u0027 OR \u00271\u0027=\u00271; protocol=SSH; raw_log=Failed password for root from 160.73.209.181 port 19585 ssh2; request_path=/login.php; source_ip=218.255.114.31; source_port=32203; target_ip=192.168.1.100; target_port=22; threat_level=medium; user_agent=python-requests/2.25.1}"
                          ],
                 "pagination":  {
                                    "has_next":  true,
                                    "has_prev":  false,
                                    "next_num":  2,
                                    "page":  1,
                                    "pages":  10,
                                    "per_page":  5,
                                    "prev_num":  null,
                                    "total":  50
                                }
             },
    "message":  "查询日志成功",
    "success":  true
}
